[gd_resource type="Environment" load_steps=3 format=2]

[sub_resource type="StreamTexture" id=1]
flags = 4

[sub_resource type="PanoramaSky" id=2]
radiance_size = 6
panorama = SubResource( 1 )

[resource]
background_mode = 2
background_sky = SubResource( 2 )
background_color = Color( 0.137255, 0.141176, 0.152941, 1 )
